<?xml version="1.0" encoding="UTF-8" standalone="no"?>
<!-- Created with Inkscape (http://www.inkscape.org/) -->

<svg
   width="3000"
   height="2500"
   viewBox="0 0 793.74997 661.45831"
   version="1.1"
   id="svg1"
   inkscape:version="1.3 (0e150ed6c4, 2023-07-21)"
   sodipodi:docname="Tux.svg"
   xml:space="preserve"
   xmlns:inkscape="http://www.inkscape.org/namespaces/inkscape"
   xmlns:sodipodi="http://sodipodi.sourceforge.net/DTD/sodipodi-0.dtd"
   xmlns:xlink="http://www.w3.org/1999/xlink"
   xmlns="http://www.w3.org/2000/svg"
   xmlns:svg="http://www.w3.org/2000/svg"
   xmlns:rdf="http://www.w3.org/1999/02/22-rdf-syntax-ns#"
   xmlns:cc="http://creativecommons.org/ns#"
   xmlns:dc="http://purl.org/dc/elements/1.1/"><title
     id="title5">Tux Reloaded</title><sodipodi:namedview
     id="namedview1"
     pagecolor="#505050"
     bordercolor="#eeeeee"
     borderopacity="1"
     inkscape:showpageshadow="0"
     inkscape:pageopacity="0"
     inkscape:pagecheckerboard="0"
     inkscape:deskcolor="#505050"
     inkscape:document-units="px"
     inkscape:zoom="0.18588821"
     inkscape:cx="1398.6901"
     inkscape:cy="1406.7595"
     inkscape:window-width="1920"
     inkscape:window-height="973"
     inkscape:window-x="0"
     inkscape:window-y="0"
     inkscape:window-maximized="1"
     inkscape:current-layer="layer6"
     showguides="true"
     inkscape:lockguides="true"><sodipodi:guide
       position="396.87499,1058.3333"
       orientation="-1,0"
       id="guide15"
       inkscape:locked="true"
       inkscape:label=""
       inkscape:color="rgb(0,134,229)" /><sodipodi:guide
       position="396.87499,384.15918"
       orientation="0,1"
       id="guide29"
       inkscape:locked="true"
       inkscape:label=""
       inkscape:color="rgb(0,134,229)" /><sodipodi:guide
       position="396.87499,631.33672"
       orientation="0,1"
       id="guide30"
       inkscape:locked="true"
       inkscape:label=""
       inkscape:color="rgb(0,134,229)" /><sodipodi:guide
       position="396.87499,600.55058"
       orientation="0,1"
       id="guide31"
       inkscape:locked="true"
       inkscape:label=""
       inkscape:color="rgb(0,134,229)" /><sodipodi:guide
       position="261.47221,766.73951"
       orientation="0.70710678,0.70710678"
       id="guide32"
       inkscape:locked="true"
       inkscape:label=""
       inkscape:color="rgb(0,134,229)" /><sodipodi:guide
       position="532.27778,766.73951"
       orientation="0.70710678,-0.70710678"
       id="guide33"
       inkscape:locked="true"
       inkscape:label=""
       inkscape:color="rgb(0,134,229)" /><sodipodi:guide
       position="330.4887,638.90621"
       orientation="-1,0"
       id="guide34"
       inkscape:locked="true"
       inkscape:label=""
       inkscape:color="rgb(0,134,229)" /><sodipodi:guide
       position="462.62007,638.2993"
       orientation="-1,0"
       id="guide35"
       inkscape:locked="true"
       inkscape:label=""
       inkscape:color="rgb(0,134,229)" /></sodipodi:namedview><defs
     id="defs1"><inkscape:path-effect
       effect="mirror_symmetry"
       start_point="261.47821,-67.657601"
       end_point="242.67231,593.53332"
       center_point="252.07526,262.93786"
       id="path-effect27"
       is_visible="true"
       lpeversion="1.2"
       lpesatellites=""
       mode="vertical"
       discard_orig_path="false"
       fuse_paths="false"
       oposite_fuse="false"
       split_items="false"
       split_open="false"
       link_styles="false" /><inkscape:path-effect
       effect="mirror_symmetry"
       start_point="130.9606,436.3789"
       end_point="130.9606,661.35026"
       center_point="130.9606,548.86458"
       id="path-effect26"
       is_visible="true"
       lpeversion="1.2"
       lpesatellites=""
       mode="free"
       discard_orig_path="false"
       fuse_paths="true"
       oposite_fuse="false"
       split_items="false"
       split_open="false"
       link_styles="false" /><inkscape:path-effect
       effect="mirror_symmetry"
       start_point="282.8184,-76.378418"
       end_point="282.8184,585.07989"
       center_point="282.8184,254.35074"
       id="path-effect23"
       is_visible="true"
       lpeversion="1.2"
       lpesatellites=""
       mode="vertical"
       discard_orig_path="false"
       fuse_paths="false"
       oposite_fuse="false"
       split_items="false"
       split_open="false"
       link_styles="false" /><linearGradient
       id="swatch8"
       inkscape:swatch="solid"><stop
         style="stop-color:#b792df;stop-opacity:1;"
         offset="0"
         id="stop8" /></linearGradient><inkscape:path-effect
       effect="mirror_symmetry"
       start_point="264.58333,0"
       end_point="264.58333,1058.3333"
       center_point="264.58333,529.16667"
       id="path-effect13"
       is_visible="true"
       lpeversion="1.2"
       lpesatellites=""
       mode="vertical"
       discard_orig_path="false"
       fuse_paths="false"
       oposite_fuse="false"
       split_items="false"
       split_open="false"
       link_styles="false" /><inkscape:path-effect
       effect="mirror_symmetry"
       start_point="130.9606,436.3789"
       end_point="130.9606,661.35026"
       center_point="130.9606,548.86458"
       id="path-effect5"
       is_visible="true"
       lpeversion="1.2"
       lpesatellites=""
       mode="free"
       discard_orig_path="false"
       fuse_paths="true"
       oposite_fuse="false"
       split_items="false"
       split_open="false"
       link_styles="false" /><inkscape:path-effect
       effect="mirror_symmetry"
       start_point="436.73886,162.98187"
       end_point="120.914,1161.0804"
       center_point="278.82643,662.03116"
       id="path-effect3"
       is_visible="true"
       lpeversion="1.2"
       lpesatellites=""
       mode="vertical"
       discard_orig_path="false"
       fuse_paths="false"
       oposite_fuse="false"
       split_items="false"
       split_open="false"
       link_styles="false" /><inkscape:path-effect
       effect="mirror_symmetry"
       start_point="130.9606,436.3789"
       end_point="130.9606,661.35026"
       center_point="130.9606,548.86458"
       id="path-effect1"
       is_visible="true"
       lpeversion="1.2"
       lpesatellites=""
       mode="free"
       discard_orig_path="false"
       fuse_paths="true"
       oposite_fuse="false"
       split_items="false"
       split_open="false"
       link_styles="false" /><inkscape:path-effect
       effect="mirror_symmetry"
       start_point="264.58334,-40.34941"
       end_point="264.58334,621.1089"
       center_point="264.58334,290.37974"
       id="path-effect22"
       is_visible="true"
       lpeversion="1.2"
       lpesatellites=""
       mode="vertical"
       discard_orig_path="false"
       fuse_paths="false"
       oposite_fuse="false"
       split_items="false"
       split_open="false"
       link_styles="false" /><inkscape:path-effect
       effect="powerstroke"
       id="path-effect18"
       is_visible="true"
       lpeversion="1.3"
       scale_width="1"
       interpolator_type="CentripetalCatmullRom"
       interpolator_beta="0.2"
       start_linecap_type="zerowidth"
       end_linecap_type="zerowidth"
       offset_points="0.24973586,0.48299307 | 0.5,0.52916503 | 0.8,0.52916503"
       linejoin_type="round"
       miter_limit="4"
       not_jump="false"
       sort_points="true"
       message="matrix(1.0566358,0,0,1.0670985,-14.984879,-139.81695)" /><inkscape:path-effect
       effect="mirror_symmetry"
       start_point="264.58334,-40.34941"
       end_point="264.58334,621.1089"
       center_point="264.58334,290.37974"
       id="path-effect17"
       is_visible="true"
       lpeversion="1.2"
       lpesatellites=""
       mode="vertical"
       discard_orig_path="false"
       fuse_paths="false"
       oposite_fuse="false"
       split_items="false"
       split_open="false"
       link_styles="false" /><inkscape:path-effect
       effect="fillet_chamfer"
       id="path-effect16"
       is_visible="true"
       lpeversion="1"
       nodesatellites_param="F,0,0,1,0,0,0,1 @ F,0,0,1,0,0,0,1 @ F,0,0,1,0,4.9798318,0,1 @ F,0,0,1,0,0,0,1"
       radius="0"
       unit="px"
       method="auto"
       mode="F"
       chamfer_steps="1"
       flexible="false"
       use_knot_distance="true"
       apply_no_radius="true"
       apply_with_radius="true"
       only_selected="false"
       hide_knots="false" /><inkscape:path-effect
       effect="mirror_symmetry"
       start_point="264.55233,-40.35955"
       end_point="264.55233,621.09876"
       center_point="264.55233,290.3696"
       id="path-effect15"
       is_visible="true"
       lpeversion="1.2"
       lpesatellites=""
       mode="vertical"
       discard_orig_path="false"
       fuse_paths="false"
       oposite_fuse="false"
       split_items="false"
       split_open="false"
       link_styles="false" /><inkscape:path-effect
       effect="mirror_symmetry"
       start_point="264.55233,-36.63183"
       end_point="264.55233,624.82648"
       center_point="264.55233,294.09732"
       id="path-effect14"
       is_visible="true"
       lpeversion="1.2"
       lpesatellites=""
       mode="vertical"
       discard_orig_path="false"
       fuse_paths="false"
       oposite_fuse="false"
       split_items="false"
       split_open="false"
       link_styles="false" /><linearGradient
       id="swatch11"
       inkscape:swatch="solid"><stop
         style="stop-color:#ffaa49;stop-opacity:1;"
         offset="0"
         id="stop11" /></linearGradient><linearGradient
       id="swatch7"
       inkscape:swatch="solid"><stop
         style="stop-color:#ffaa49;stop-opacity:1;"
         offset="0"
         id="stop7" /></linearGradient><inkscape:path-effect
       effect="mirror_symmetry"
       start_point="261.83661,-38.025369"
       end_point="413.93809,1009.3211"
       center_point="337.88735,485.64786"
       id="path-effect2"
       is_visible="false"
       lpeversion="1.2"
       lpesatellites=""
       mode="vertical"
       discard_orig_path="false"
       fuse_paths="false"
       oposite_fuse="false"
       split_items="false"
       split_open="false"
       link_styles="false" /><inkscape:path-effect
       effect="bool_op"
       operand-path="#g24"
       id="path-effect24"
       is_visible="false"
       lpeversion="1.2"
       operation="diff"
       swap-operands="false"
       filltype-this="from-curve"
       filter=""
       filltype-operand="from-curve" /><inkscape:path-effect
       effect="bool_op"
       operand-path="#rect20"
       id="path-effect21"
       is_visible="true"
       lpeversion="1.2"
       operation="diff"
       swap-operands="false"
       filltype-this="from-curve"
       filter=""
       filltype-operand="from-curve" /><inkscape:path-effect
       effect="bool_op"
       operand-path=""
       id="path-effect20"
       is_visible="true"
       lpeversion="1"
       operation="diff"
       swap-operands="false"
       filltype-this="from-curve"
       filter=""
       filltype-operand="from-curve" /><inkscape:path-effect
       effect="mirror_symmetry"
       start_point="251.83171,-8.1583792"
       end_point="251.83171,525.70162"
       center_point="251.83171,258.77162"
       id="path-effect19"
       is_visible="true"
       lpeversion="1.2"
       lpesatellites=""
       mode="vertical"
       discard_orig_path="false"
       fuse_paths="false"
       oposite_fuse="false"
       split_items="false"
       split_open="false"
       link_styles="false" /><linearGradient
       id="swatch13"
       inkscape:swatch="solid"><stop
         style="stop-color:#ffbf00;stop-opacity:1;"
         offset="0"
         id="stop13" /></linearGradient><inkscape:path-effect
       effect="bool_op"
       operand-path="#rect12"
       id="path-effect12"
       is_visible="true"
       lpeversion="1.2"
       operation="diff"
       swap-operands="false"
       filltype-this="from-curve"
       filter=""
       filltype-operand="from-curve" /><filter
       id="selectable_hidder_filter"
       width="1"
       height="1"
       x="0"
       y="0"
       style="color-interpolation-filters:sRGB"
       inkscape:label="LPE boolean visibility"><feComposite
         id="boolops_hidder_primitive"
         result="composite1"
         operator="arithmetic"
         in2="SourceGraphic"
         in="BackgroundImage"
         k1="0"
         k2="0"
         k3="0"
         k4="0" /></filter><inkscape:path-effect
       effect="bool_op"
       operand-path="#rect11"
       id="path-effect11"
       is_visible="true"
       lpeversion="1.2"
       operation="diff"
       swap-operands="false"
       filltype-this="from-curve"
       filter=""
       filltype-operand="from-curve" /><inkscape:path-effect
       effect="mirror_symmetry"
       start_point="261.80852,-53.605715"
       end_point="261.80852,653.24068"
       center_point="261.80852,299.81748"
       id="path-effect10"
       is_visible="true"
       lpeversion="1.2"
       lpesatellites=""
       mode="vertical"
       discard_orig_path="false"
       fuse_paths="false"
       oposite_fuse="false"
       split_items="false"
       split_open="false"
       link_styles="false" /><linearGradient
       id="swatch9"><stop
         style="stop-color:#000000;stop-opacity:1;"
         offset="0"
         id="stop9" /></linearGradient><inkscape:path-effect
       effect="mirror_symmetry"
       start_point="306.5255,109.31109"
       end_point="306.5255,1167.6444"
       center_point="306.5255,638.47776"
       id="path-effect9"
       is_visible="true"
       lpeversion="1.2"
       lpesatellites=""
       mode="vertical"
       discard_orig_path="false"
       fuse_paths="false"
       oposite_fuse="false"
       split_items="false"
       split_open="false"
       link_styles="false" /><linearGradient
       id="swatch6"><stop
         style="stop-color:#ffffff;stop-opacity:1;"
         offset="0"
         id="stop6" /></linearGradient><linearGradient
       id="swatch5"
       inkscape:swatch="solid"
       inkscape:label="white"><stop
         style="stop-color:#ffffff;stop-opacity:1;"
         offset="0"
         id="stop5" /></linearGradient><linearGradient
       id="swatch4"><stop
         style="stop-color:#000000;stop-opacity:1;"
         offset="0"
         id="stop4" /></linearGradient><linearGradient
       id="swatch3"
       inkscape:swatch="solid"
       inkscape:label="gray"><stop
         style="stop-color:#1e1e1e;stop-opacity:1;"
         offset="0"
         id="stop3" /></linearGradient><linearGradient
       inkscape:collect="always"
       xlink:href="#swatch3"
       id="linearGradient3"
       x1="66.145844"
       y1="463.02084"
       x2="463.02084"
       y2="463.02084"
       gradientUnits="userSpaceOnUse" /><linearGradient
       inkscape:collect="always"
       xlink:href="#swatch3"
       id="linearGradient4"
       x1="132.29167"
       y1="132.29167"
       x2="396.87503"
       y2="132.29167"
       gradientUnits="userSpaceOnUse" /><linearGradient
       inkscape:collect="always"
       xlink:href="#swatch5"
       id="linearGradient5"
       x1="132.29167"
       y1="132.29167"
       x2="396.87503"
       y2="132.29167"
       gradientUnits="userSpaceOnUse"
       gradientTransform="matrix(0.8446789,0,0,0.8446789,41.095372,41.095382)" /><linearGradient
       inkscape:collect="always"
       xlink:href="#swatch5"
       id="linearGradient6"
       x1="66.145844"
       y1="463.02084"
       x2="463.02084"
       y2="463.02084"
       gradientUnits="userSpaceOnUse"
       gradientTransform="matrix(0.84085873,0,0,0.84085873,42.106124,-208.82009)" /><linearGradient
       inkscape:collect="always"
       xlink:href="#swatch3"
       id="linearGradient9"
       gradientUnits="userSpaceOnUse"
       gradientTransform="matrix(0.8446789,0,0,0.8446789,41.095372,41.095382)"
       x1="132.29167"
       y1="132.29167"
       x2="396.87503"
       y2="132.29167" /><linearGradient
       inkscape:collect="always"
       xlink:href="#swatch5"
       id="linearGradient10"
       gradientUnits="userSpaceOnUse"
       gradientTransform="matrix(0.28155966,0,0,0.72776259,133.36459,56.562433)"
       x1="132.29167"
       y1="132.29167"
       x2="396.87503"
       y2="132.29167" /><linearGradient
       inkscape:collect="always"
       xlink:href="#swatch13"
       id="linearGradient12"
       gradientUnits="userSpaceOnUse"
       gradientTransform="matrix(0.31194757,0,0,0.15532107,182.04718,132.29167)"
       x1="132.29167"
       y1="132.29167"
       x2="396.87503"
       y2="132.29167" /><linearGradient
       inkscape:collect="always"
       xlink:href="#swatch13"
       id="linearGradient13"
       x1="27.216185"
       y1="557.60614"
       x2="501.95047"
       y2="557.60614"
       gradientUnits="userSpaceOnUse" /><inkscape:path-effect
       effect="mirror_symmetry"
       start_point="261.80852,-10.487594"
       end_point="261.80852,1120.4667"
       center_point="261.80852,554.98954"
       id="path-effect10-5"
       is_visible="false"
       lpeversion="1.2"
       lpesatellites=""
       mode="vertical"
       discard_orig_path="false"
       fuse_paths="false"
       oposite_fuse="false"
       split_items="false"
       split_open="false"
       link_styles="false" /><inkscape:path-effect
       effect="bool_op"
       operand-path="#rect12-2"
       id="path-effect12-3"
       is_visible="false"
       lpeversion="1"
       operation="diff"
       swap-operands="false"
       filltype-this="from-curve"
       filter=""
       filltype-operand="from-curve" /><linearGradient
       inkscape:collect="always"
       xlink:href="#swatch5"
       id="linearGradient1"
       gradientUnits="userSpaceOnUse"
       gradientTransform="matrix(0.8446789,0,0,0.8446789,41.095372,41.095382)"
       x1="132.29167"
       y1="132.29167"
       x2="396.87503"
       y2="132.29167" /><linearGradient
       inkscape:collect="always"
       xlink:href="#swatch3"
       id="linearGradient2"
       gradientUnits="userSpaceOnUse"
       x1="66.145844"
       y1="463.02084"
       x2="463.02084"
       y2="463.02084"
       gradientTransform="matrix(1.0566358,0,0,1.0670985,-14.984879,-331.83859)" /><linearGradient
       inkscape:collect="always"
       xlink:href="#swatch3"
       id="linearGradient11"
       x1="111.23015"
       y1="210.50153"
       x2="199.99519"
       y2="210.50153"
       gradientUnits="userSpaceOnUse" /><linearGradient
       inkscape:collect="always"
       xlink:href="#swatch13"
       id="linearGradient27"
       gradientUnits="userSpaceOnUse"
       x1="27.216185"
       y1="557.60614"
       x2="501.95047"
       y2="557.60614"
       gradientTransform="matrix(0.83775336,-0.22447534,0.26508738,0.98931956,-169.47906,-59.329132)" /><style
       id="style1">.cls-1{fill:#1d1d1b;}.cls-2{fill:#e9500e;}.cls-3{fill:#fff;}</style><linearGradient
       inkscape:collect="always"
       xlink:href="#swatch3"
       id="linearGradient28"
       gradientUnits="userSpaceOnUse"
       x1="132.29167"
       y1="132.29167"
       x2="396.87503"
       y2="132.29167"
       gradientTransform="translate(0,-192.02164)" /></defs><g
     inkscape:groupmode="layer"
     id="layer6"
     inkscape:label="Tux"
     inkscape:highlight-color="#ff8142"
     transform="translate(122.59694,232.37105)"
     inkscape:export-filename="tux--ultra-reloaded/tuxy-1.png"
     inkscape:export-xdpi="96"
     inkscape:export-ydpi="96"><g
       inkscape:groupmode="layer"
       id="layer2"
       inkscape:label="wings"
       transform="translate(9.2609886,88.421998)"
       inkscape:highlight-color="#62b2b4"><g
         id="g14"
         inkscape:path-effect="#path-effect23"
         transform="translate(-17.801345,-244.41463)"><path
           style="fill:#171717;fill-opacity:1;stroke-width:0.264583;stroke-linecap:round"
           d="m 132.29167,167.04902 c 0,0 -7.01174,2.98591 -22.17849,25.43204 -55.205999,81.70247 -95.871967,204.24153 -105.1192312,214.78185 -12.0642752,13.75123 -23.7493138,13.28938 -31.3478428,12.37113 -7.181732,-0.86787 -26.109061,6.3039 -31.329184,16.55569 28.406757,7.9359 29.57476,12.18093 65.2812488,12.18093 H 78.143154 c 36.248776,0 54.148516,-73.84286 54.148516,-115.23527 z m 301.05346,0 c 0,0 7.01174,2.98591 22.17849,25.43204 55.206,81.70247 95.87197,204.24153 105.11924,214.78185 12.06427,13.75123 23.74931,13.28938 31.34784,12.37113 7.18173,-0.86787 26.10906,6.3039 31.32918,16.55569 -28.40676,7.9359 -29.57476,12.18093 -65.28125,12.18093 h -70.54498 c -36.24878,0 -54.14852,-73.84286 -54.14852,-115.23527 z"
           id="path5"
           sodipodi:nodetypes="csssccccc"
           inkscape:original-d="m 132.29167,167.04902 c 0,0 -7.01174,2.98591 -22.17849,25.43204 -55.205999,81.70247 -95.871967,204.24153 -105.1192312,214.78185 -12.0642752,13.75123 -23.7493138,13.28938 -31.3478428,12.37113 -7.181732,-0.86787 -26.109061,6.3039 -31.329184,16.55569 28.406757,7.9359 29.57476,12.18093 65.2812488,12.18093 H 78.143154 c 36.248776,0 54.148516,-73.84286 54.148516,-115.23527 z" /><path
           style="fill:#ebebeb;fill-opacity:1;stroke-width:0.241744;stroke-linecap:round"
           d="m 132.29167,213.52129 c 0,0 -13.76419,-0.26536 -22.17849,21.23086 -23.581748,60.24483 -84.751527,186.8844 -95.123888,195.81073 -9.5917704,8.25456 -29.582969,5.79744 -40.755007,0.12778 -6.43675,-3.26656 -26.697241,-3.05923 -31.917363,5.49907 32.849046,12.18093 50.858561,16.71387 86.565049,16.71387 l 49.261183,-4.53294 c 36.248766,0 54.148516,-61.64456 54.148516,-96.19925 z m 301.05346,0 c 0,0 13.76419,-0.26536 22.17849,21.23086 23.58175,60.24483 84.75153,186.8844 95.12389,195.81073 9.59177,8.25456 29.58297,5.79744 40.75501,0.12778 6.43675,-3.26656 26.69724,-3.05923 31.91736,5.49907 -32.84904,12.18093 -50.85856,16.71387 -86.56505,16.71387 l -49.26118,-4.53294 c -36.24877,0 -54.14852,-61.64456 -54.14852,-96.19925 z"
           id="path6"
           sodipodi:nodetypes="csssccccc"
           inkscape:original-d="m 132.29167,213.52129 c 0,0 -13.76419,-0.26536 -22.17849,21.23086 -23.581748,60.24483 -84.751527,186.8844 -95.123888,195.81073 -9.5917704,8.25456 -29.582969,5.79744 -40.755007,0.12778 -6.43675,-3.26656 -26.697241,-3.05923 -31.917363,5.49907 32.849046,12.18093 50.858561,16.71387 86.565049,16.71387 l 49.261183,-4.53294 c 36.248766,0 54.148516,-61.64456 54.148516,-96.19925 z" /></g></g><g
       inkscape:label="back"
       inkscape:groupmode="layer"
       id="layer1"
       style="display:inline"
       inkscape:highlight-color="#899aff"
       transform="translate(9.6947065)"><circle
         style="fill:url(#linearGradient28);stroke-width:0.266838;stroke-linecap:round"
         id="path1"
         cx="264.58334"
         cy="-59.729965"
         r="132.29167" /><ellipse
         style="fill:url(#linearGradient2);stroke-width:0.425015;stroke-linecap:round"
         id="circle1"
         cx="264.58334"
         cy="162.25024"
         rx="209.67616"
         ry="211.75237" /><circle
         style="display:none;fill:url(#linearGradient4);stroke-width:0.266838;stroke-linecap:round"
         id="circle6"
         cx="264.58334"
         cy="132.29167"
         r="132.29167" /><circle
         style="display:none;fill:url(#linearGradient3);stroke-width:0.400257;stroke-linecap:round"
         id="circle7"
         cx="264.58334"
         cy="463.02084"
         r="198.4375" /><path
         style="display:none;fill:#000000;fill-opacity:1;stroke:none;stroke-width:0.264583;stroke-linecap:round;stroke-opacity:1"
         d="m 458.64618,421.58348 -64.44334,-315.7469 h -259.239 l -64.443339,315.7469 z"
         id="path8"
         sodipodi:nodetypes="ccccc" /><path
         id="path2"
         style="opacity:1;fill:url(#swatch3);stroke:none;stroke-width:0.264583;stroke-linecap:round;stroke-opacity:1"
         d="m 264.58333,105.22769 -129.78122,1.41541 c 0,0 -6.20337,54.81973 -15.87965,80.34807 -8.15019,21.50216 -34.844388,59.53797 -34.844388,59.53797 l 180.505258,0.0145 z m 2e-5,0 129.78122,1.41541 c 0,0 6.20337,54.81973 15.87965,80.34807 8.15019,21.50216 34.84439,59.53797 34.84439,59.53797 l -180.50526,0.0145 z"
         inkscape:path-effect="#path-effect17"
         inkscape:original-d="m 264.58333,105.22769 -129.78122,1.41541 c 0,0 -6.20337,54.81973 -15.87965,80.34807 -8.15019,21.50216 -34.844388,59.53797 -34.844388,59.53797 l 180.505258,0.0145 z"
         transform="translate(0,-192.02164)" /></g><g
       inkscape:label="front"
       inkscape:groupmode="layer"
       id="g3"
       style="display:inline"
       inkscape:highlight-color="#adff76"
       transform="translate(9.6947065)"><circle
         style="fill:url(#linearGradient6);stroke-width:0.33656;stroke-linecap:round"
         id="circle3"
         cx="264.58334"
         cy="180.51501"
         inkscape:label="Tummy"
         r="166.85788" /><circle
         style="display:none;fill:url(#linearGradient5);stroke-width:0.225392;stroke-linecap:round"
         id="circle2"
         cx="264.58334"
         cy="152.83936"
         r="111.74398" /><circle
         style="display:none;fill:url(#linearGradient9);stroke:none;stroke-width:0.225;stroke-linecap:round;stroke-dasharray:none"
         id="circle9"
         cx="264.58334"
         cy="152.83936"
         r="111.74398" /><path
         style="display:none;opacity:1;fill:url(#linearGradient11);fill-opacity:1;stroke:none;stroke-width:0.264583;stroke-linecap:round;stroke-opacity:1"
         d="m 111.35883,306.47756 45.80924,-191.98322 c -4.32823,58.8927 -2.60514,79.26863 31.03514,105.03673 0,0 8.00771,4.22192 7.11481,10.91765 -0.85546,6.41494 -13.0896,10.83401 -13.0896,10.83401 -36.99447,17.68305 -47.71691,21.42411 -70.86959,65.19483 z"
         id="path7"
         sodipodi:nodetypes="cccscc"
         inkscape:label="side rounding" /><g
         inkscape:groupmode="layer"
         id="layer9"
         inkscape:label="Chin"><path
           style="display:inline;fill:url(#linearGradient1);stroke-width:0.225392;stroke-linecap:round"
           id="circle11"
           inkscape:path-effect="#path-effect11"
           sodipodi:type="arc"
           sodipodi:cx="264.58334"
           sodipodi:cy="152.83936"
           sodipodi:rx="111.74398"
           sodipodi:ry="111.74398"
           d="m 152.83984,152.84014 c 0,61.71443 50.02971,111.74311 111.74414,111.74311 61.71444,0 111.74414,-50.02868 111.74414,-111.74311 z"
           transform="matrix(1,0,0,0.81765386,0,-164.15197)"
           inkscape:label="circle11" /><rect
           style="display:inline;fill:#ffbf00;fill-opacity:1;stroke:none;stroke-width:0.31866;stroke-linecap:round;stroke-dasharray:none;stroke-opacity:1;filter:url(#selectable_hidder_filter)"
           id="rect11"
           width="260.14526"
           height="192.55385"
           x="134.51071"
           y="-39.714493"
           transform="matrix(1,0,0,0.81765386,0,-164.15197)" /></g><g
         inkscape:groupmode="layer"
         id="layer7"
         inkscape:label="Eyes"><path
           style="display:inline;fill:url(#linearGradient10);stroke-width:0.120788;stroke-linecap:round"
           id="circle10"
           inkscape:path-effect="#path-effect10;#path-effect12"
           sodipodi:type="arc"
           sodipodi:cx="207.8606"
           sodipodi:cy="152.83936"
           sodipodi:rx="37.247997"
           sodipodi:ry="96.276924"
           d="m 207.86098,56.562097 c -20.57148,0 -37.24799,43.105685 -37.24799,96.277913 h 74.49599 c 0,-53.172228 -16.67652,-96.277913 -37.248,-96.277913 z m 107.89614,0 c -20.57148,0 -37.248,43.105685 -37.248,96.277913 h 74.49599 c 0,-53.172228 -16.67651,-96.277913 -37.24799,-96.277913 z"
           transform="matrix(1.2253176,0,0,0.93578791,-56.215254,-182.20747)"
           inkscape:label="eye sockets" /><rect
           style="display:inline;fill:#ffbf00;fill-opacity:1;stroke:none;stroke-width:0.242752;stroke-linecap:round;stroke-dasharray:none;stroke-opacity:1;filter:url(#selectable_hidder_filter)"
           id="rect12"
           width="260.14447"
           height="125.21819"
           x="134.51151"
           y="152.83936"
           transform="matrix(1,0,0,0.93578791,0,-182.20747)" /><path
           style="display:inline;fill:#000000;fill-opacity:1;stroke-width:0.029702;stroke-linecap:round"
           id="circle10-6"
           inkscape:path-effect="#path-effect21;#path-effect19"
           sodipodi:type="arc"
           sodipodi:cx="198.48"
           sodipodi:cy="126.52606"
           sodipodi:rx="10.480971"
           sodipodi:ry="20.689482"
           d="m 206.96584,138.6728 c 1.25536,-3.41112 1.99575,-7.60849 1.99575,-12.14716 0,-11.42647 -4.69273,-20.6897 -10.48121,-20.6897 -5.78847,0 -10.48121,9.26323 -10.48121,20.6897 0,1.7179 0.10607,3.38689 0.30599,4.98287 h 1.69757 c 6.7695,0 12.82586,2.76557 16.96311,7.16429 z m 89.73173,0 c -1.25536,-3.41112 -1.99574,-7.60849 -1.99574,-12.14716 0,-11.42647 4.69273,-20.6897 10.4812,-20.6897 5.78848,0 10.48121,9.26323 10.48121,20.6897 0,1.7179 -0.10607,3.38689 -0.30599,4.98287 h -1.69756 c -6.76951,0 -12.82587,2.76557 -16.96312,7.16429 z"
           transform="matrix(1.2390108,0,0,1.2390108,-47.438866,-222.26273)"
           inkscape:label="eyes" /><rect
           style="display:inline;fill:#ffbf00;fill-opacity:1;stroke:none;stroke-width:0.225;stroke-linecap:round;stroke-dasharray:none;stroke-opacity:1;filter:url(#selectable_hidder_filter)"
           id="rect20"
           width="108.58334"
           height="108.58334"
           x="100.37762"
           y="126.52606"
           ry="26.313293"
           transform="matrix(1.0647758,0,0,1,-6.502041,-185.84831)"
           inkscape:label="cheeks" /><path
           id="path17"
           style="display:inline;opacity:1;fill:#000000;fill-opacity:1;fill-rule:nonzero;stroke:none;stroke-width:1.05833;stroke-linecap:round;stroke-dasharray:none;stroke-opacity:1"
           d="m 214.86414,148.55881 c -0.93391,-1.24261 -2.46647,-3.2593 -4.27763,-5.3008 -1.83126,-2.06416 -3.51425,-3.66565 -5.05125,-4.87654 l -0.009,-0.007 c -1.46995,-1.15706 -2.90961,-2.05033 -4.33928,-2.76328 -1.39929,-0.6978 -2.81778,-1.2373 -4.29767,-1.68448 -2.8418,-0.85873 -5.78005,-1.35112 -9.07134,-1.75384 -0.67343,-0.0824 -1.35497,-0.15976 -2.00609,-0.22877 -3.01626,-0.31968 -7.4741,-0.79255 -9.19049,-1.0988 2.41797,0.6895 5.42574,1.52777 9.04533,2.14713 0.65578,0.11221 1.31984,0.21527 1.998,0.31546 3.31684,0.49004 6.13505,0.80665 8.92105,1.63268 1.42928,0.42377 2.78284,0.96044 4.12224,1.62997 1.365,0.68234 2.76463,1.52771 4.23856,2.57735 l 0.009,0.007 c 1.57027,1.11892 3.29706,2.50821 5.28613,4.43375 1.94614,1.88397 3.6195,3.78165 4.62238,4.97083 z m 99.4384,0 c 0.93391,-1.24261 2.46647,-3.2593 4.27763,-5.3008 1.83125,-2.06416 3.51425,-3.66565 5.05125,-4.87654 l 0.009,-0.007 c 1.46995,-1.15706 2.9096,-2.05033 4.33928,-2.76328 1.39929,-0.6978 2.81777,-1.2373 4.29767,-1.68448 2.8418,-0.85873 5.78005,-1.35112 9.07133,-1.75384 0.67344,-0.0824 1.35498,-0.15976 2.0061,-0.22877 3.01626,-0.31968 7.47409,-0.79255 9.19049,-1.0988 -2.41797,0.6895 -5.42574,1.52777 -9.04533,2.14713 -0.65578,0.11221 -1.31984,0.21527 -1.998,0.31546 -3.31684,0.49004 -6.13505,0.80665 -8.92105,1.63268 -1.42928,0.42377 -2.78284,0.96044 -4.12224,1.62997 -1.365,0.68234 -2.76463,1.52771 -4.23856,2.57735 l -0.009,0.007 c -1.57027,1.11892 -3.29707,2.50821 -5.28614,4.43375 -1.94613,1.88397 -3.61949,3.78165 -4.62237,4.97083 z"
           sodipodi:nodetypes="cc"
           inkscape:path-effect="#path-effect18;#path-effect22"
           inkscape:original-d="M 214.86414,148.55881 C 200.55123,130.58749 193.58643,134.76681 176.62113,130.845"
           transform="translate(0,-192.02164)" /><g
           inkscape:groupmode="layer"
           id="layer8"
           inkscape:label="highlights"
           style="display:inline"><ellipse
             style="display:inline;fill:#ffffff;fill-opacity:1;stroke-width:0.264583;stroke-linecap:round"
             id="path35"
             cx="195.92329"
             cy="-82.074814"
             rx="2.2737629"
             ry="4.5475259" /><ellipse
             style="display:inline;fill:#ffffff;fill-opacity:1;stroke-width:0.264583;stroke-linecap:round"
             id="ellipse35"
             cx="328.05466"
             cy="-81.467911"
             rx="2.2737629"
             ry="4.5475259" /></g></g><g
         inkscape:groupmode="layer"
         id="layer5"
         inkscape:label="Beak"
         style="display:inline"><path
           id="path14"
           style="display:inline;fill:#ffac00;fill-opacity:1;stroke-width:0.0363266;stroke-linecap:round"
           inkscape:label="beak"
           d="m 235.07998,152.83984 c 0,4.65288 5.07186,3.74178 10.1596,6.06086 8.10573,3.69473 9.54267,5.2575 19.31275,5.54506 v -6.99646 z m 58.9447,0 c 0,4.65288 -5.07186,3.74178 -10.1596,6.06086 -8.10573,3.69473 -9.54267,5.2575 -19.31275,5.54506 v -6.99646 z"
           sodipodi:nodetypes="csccc"
           inkscape:path-effect="#path-effect15"
           inkscape:original-d="m 235.07998,152.83984 c 0,4.65288 5.07186,3.74178 10.1596,6.06086 8.10573,3.69473 9.54267,5.2575 19.31275,5.54506 v -6.99646 z"
           transform="translate(0.03100833,-192.0115)" /><path
           id="circle12"
           style="display:inline;fill:url(#linearGradient12);stroke-width:0.0587357;stroke-linecap:round"
           inkscape:label="beak"
           d="m 264.55233,139.49953 c -6.11061,0 -11.08148,1.76661 -23.97797,8.12673 -4.33513,0.40434 -8.67324,2.23385 -10.93545,5.20179 -1.63697,2.14766 0.62617,4.63454 3.37516,4.71752 30.30333,0.91473 24.71919,7.02781 31.53826,7.02781 z m 0,0 c 6.11061,0 11.08148,1.76661 23.97797,8.12673 4.33513,0.40434 8.67324,2.23385 10.93545,5.20179 1.63698,2.14766 -0.62617,4.63454 -3.37515,4.71752 -30.30334,0.91473 -24.7192,7.02781 -31.53827,7.02781 z"
           sodipodi:nodetypes="ccccc"
           inkscape:path-effect="#path-effect16;#path-effect14"
           inkscape:original-d="m 264.55233,139.49953 c -6.11061,0 -11.08148,1.76661 -23.97797,8.12673 -6.2664,0.58447 -12.53901,4.14676 -12.53907,9.82084 35.89075,0.36674 29.34647,7.12628 36.51704,7.12628 z"
           transform="translate(0.03100833,-195.73922)" /></g><g
         id="g9"
         transform="matrix(1.0289179,0,0,1.0289179,166.34584,283.68819)"
         style="display:none"
         inkscape:label="distro logo"><circle
           class="cls-3"
           cx="24.5497"
           cy="78.380676"
           r="24.5497"
           id="circle6-6"
           style="display:inline;fill:#e9500e;fill-opacity:1" /><circle
           class="cls-3"
           cx="126.79012"
           cy="24.5497"
           r="24.5497"
           id="circle7-7"
           style="display:inline;fill:#e9500e;fill-opacity:1" /><path
           class="cls-3"
           d="m 79.91777,141.56176 a 59.78848,59.78848 0 0 1 -40.772,-31.0957 35.34018,35.34018 0 0 1 -20.99024,2.58008 79.92109,79.92109 0 0 0 57.53955,48.22363 80.88379,80.88379 0 0 0 17.43262,1.79395 35.1274,35.1274 0 0 1 -7.188,-20.52539 c -2.02193,-0.22461 -4.04145,-0.55274 -6.02193,-0.97657 z"
           id="path7-5"
           style="display:inline;fill:#e9500e;fill-opacity:1" /><circle
           class="cls-3"
           cx="121.25917"
           cy="141.69716"
           r="24.5497"
           id="circle8"
           style="display:inline;fill:#e9500e;fill-opacity:1" /><path
           class="cls-3"
           d="m 155.42119,132.67993 a 80.3186,80.3186 0 0 0 4.0249,-94.238284 35.38432,35.38432 0 0 1 -13.80518,16.168 60.18666,60.18666 0 0 1 -1.96728,59.780284 35.20475,35.20475 0 0 1 11.74756,18.29 z"
           id="path8-3"
           style="fill:#e9500e;fill-opacity:1" /><path
           class="cls-3"
           d="m 22.65556,43.174066 q 0.93458,-0.0513 1.87012,-0.0508 a 35.42979,35.42979 0 0 1 18.61767,5.30175 59.87445,59.87445 0 0 1 48.2109,-25.78418 A 35.5969,35.5969 0 0 1 98.80201,2.7311722 80.69546,80.69546 0 0 0 22.65556,43.174046 Z"
           id="path9-5"
           style="fill:#e9500e;fill-opacity:1" /></g></g><g
       inkscape:groupmode="layer"
       id="layer3"
       inkscape:label="feet"
       style="display:inline"
       transform="rotate(15,104.97076,545.17343)"
       inkscape:highlight-color="#ffbf00"><path
         id="rect9"
         style="fill:url(#linearGradient27);stroke:none;stroke-width:0.203631;stroke-linecap:round"
         d="M 55.912449,342.99156 C 43.113868,356.25178 43.291061,368.30567 41.83678,385.8138 32.451742,373.28651 22.084318,369.60639 7.9856184,364.59796 -2.4483903,393.30086 -8.2340604,405.76209 -2.4926793,437.54193 13.666628,497.61706 65.299544,551.75534 78.321067,558.75762 c 9.987121,5.47839 27.492613,10.31107 37.228273,6.80185 10.18594,-1.82876 22.92979,-14.76673 28.83971,-24.50471 7.77582,-12.57491 25.42046,-85.27606 9.37727,-145.3823 C 142.84859,365.27962 131.60907,357.38027 108.2215,337.73983 98.515879,349.12661 91.375857,357.49784 89.511815,373.03931 79.498308,358.60397 73.626454,348.07595 55.912449,342.99156 Z m 387.458331,11.02027 c 12.02419,13.96624 11.16215,25.99057 11.61894,43.55306 10.0819,-11.9736 20.64174,-15.0585 35.00232,-19.25748 8.7857,29.24956 13.85373,42.01949 6.3153,73.42162 -19.54779,59.05953 -74.1744,110.17553 -87.57287,116.42636 -10.28236,4.90188 -28.03424,8.73175 -37.5547,4.67484 -10.06553,-2.40476 -22.0534,-16.04616 -27.40026,-26.10431 -7.04851,-12.99655 -20.53237,-86.58308 -1.09874,-145.68027 12.62758,-29.72315 24.29792,-36.97089 48.76402,-55.25025 9.04272,11.92003 15.69539,20.68356 16.67306,36.30585 10.8178,-13.84285 17.27857,-24.02009 35.25293,-28.08942 z"
         sodipodi:nodetypes="ccccccc"
         inkscape:path-effect="#path-effect27"
         inkscape:original-d="M 55.912449,342.99156 C 43.113868,356.25178 43.291061,368.30567 41.83678,385.8138 32.451742,373.28651 22.084318,369.60639 7.9856184,364.59796 -2.4483903,393.30086 -8.2340604,405.76209 -2.4926793,437.54193 13.666628,497.61706 65.299544,551.75534 78.321067,558.75762 c 9.987121,5.47839 27.492613,10.31107 37.228273,6.80185 10.18594,-1.82876 22.92979,-14.76673 28.83971,-24.50471 7.77582,-12.57491 25.42046,-85.27606 9.37727,-145.3823 C 142.84859,365.27962 131.60907,357.38027 108.2215,337.73983 98.515879,349.12661 91.375857,357.49784 89.511815,373.03931 79.498308,358.60397 73.626454,348.07595 55.912449,342.99156 Z"
         transform="rotate(-16.629194,-458.43393,505.77679)" /><path
         id="path9"
         style="display:none;fill:url(#linearGradient13);stroke:none;stroke-width:0.216053;stroke-linecap:round"
         d="m 130.96094,436.37891 c -18.21096,9.27133 -21.61071,20.68396 -28.45508,36.82812 -6.713835,-14.18589 -17.161906,-20.2764 -31.369141,-28.5625 -20.185879,24.43262 -30.348072,34.72259 -33.4375,66.14453 0.0693,60.73941 41.417503,124.84401 53.830078,134.73828 9.487893,7.69032 27.541743,16.67157 39.431643,15.82227 11.8899,0.8493 29.94374,-8.13195 39.43164,-15.82227 12.41257,-9.89427 53.75882,-73.99887 53.82812,-134.73828 -3.08942,-31.42194 -13.24966,-41.71191 -33.43554,-66.14453 -14.20724,8.2861 -24.65726,14.37661 -31.3711,28.5625 -6.84437,-16.14416 -10.24216,-27.55679 -28.45312,-36.82812 z"
         transform="matrix(0.75110911,-0.43365305,0.51210949,0.88699965,-293.4597,22.093839)"
         sodipodi:nodetypes="ccccccc"
         inkscape:original-d="m 71.136606,444.64371 c -20.185899,24.43264 -30.347344,34.72258 -33.436775,66.14455 0.0693,60.73947 41.416727,124.84431 53.829314,134.73859 9.487905,7.69032 27.541545,16.67271 39.431455,15.82341 V 436.3789 c -18.21098,9.27134 -21.60952,20.68373 -28.4539,36.82791 -6.713841,-14.18591 -17.162845,-20.27699 -31.370094,-28.5631 z"
         inkscape:path-effect="#path-effect26" /></g></g><g
     inkscape:groupmode="layer"
     id="layer4"
     inkscape:label="frames"
     style="display:none"
     inkscape:highlight-color="#ff4242"
     transform="translate(132.29165,28.025175)"
     sodipodi:insensitive="true"><rect
       style="display:none;opacity:0.5;fill:#ffaa49;fill-opacity:1;stroke:none;stroke-width:0.364794;stroke-linecap:round;stroke-opacity:1"
       id="rect13"
       width="270.80557"
       height="270.80557"
       x="129.18056"
       y="-1.0147183"
       sodipodi:insensitive="true" /><circle
       style="display:none;opacity:0.5;fill:#49d1ff;fill-opacity:1;stroke:none;stroke-width:0.22713;stroke-linecap:round;stroke-opacity:1"
       id="path13"
       cx="264.58337"
       cy="134.66905"
       r="122.34481"
       sodipodi:insensitive="true" /><rect
       style="display:inline;opacity:1;fill:#ffffff;fill-opacity:1;stroke:none;stroke-width:0.364794;stroke-linecap:round;stroke-opacity:1"
       id="rect1"
       width="270.80557"
       height="270.80557"
       x="129.18056"
       y="-1.0147183" /><circle
       style="display:inline;opacity:1;fill:#ffffff;fill-opacity:1;stroke:none;stroke-width:0.22713;stroke-linecap:round;stroke-opacity:1"
       id="circle4"
       cx="264.58337"
       cy="134.66905"
       r="122.34481" /></g><metadata
     id="metadata5"><rdf:RDF><cc:Work
         rdf:about=""><dc:title>Tux Reloaded</dc:title></cc:Work></rdf:RDF></metadata></svg>
